[
	{
		"lat": "44.4299971",
		"lon": "24.3631837",
		"radius": 8000
	},
	{
		"lat": "45.6523093",
		"lon": "25.6102746",
		"radius": 10000
	},
	{
		"lat": "44.6257835",
		"lon": "22.6531975",
		"radius": 12000
	},
	{
		"lat": "44.4361414",
		"lon": "26.1027202",
		"radius": 5000
	},
	{
		"lat": "44.3190159",
		"lon": "23.7965614",
		"radius": 3500
	}
]
